{
   "Statement": [
      {
         "Effect": "Allow",
         "Principal": {
            "AWS": "arn:aws:iam::195848431569:user/NOBRE_TECH_USER_2"
         },
         "Action": [
            "s3:DeleteObject",
            "s3:PutObject",
            "s3:GetObject"
         ],
         "Resource": "arn:aws:s3:::d-ew1-nlex-deployment-bucket/*"
      }
   ]
}
